…
    ## tibble [62 × 3] (S3: tbl_df/tbl/data.frame)
    ##  $ cocoa_percent   : chr [1:62] "80%" "72%" "72%" "64%" ...
    ##  $ company_location: chr [1:62] "Switzerland" "Belgium" "Switzerland" "Belgium" ...
    ##  $ rating          : num [1:62] 3.25 4 3.5 2.75 2.75 3.75 2.75 3.75 3.75 4 ...

## swiss chocolate vs. belgian chocolate

I arranged the data by rating.

One can observe that Belgium appears 6 times and Switzerland 4 times in
the top ten. So far, it looks like belgian is better than swiss
chocolate.

    ## # A tibble: 62 × 3
    ##    cocoa_percent company_location rating
    ##    <chr>         <chr>             <dbl>
    ##  1 72%           Belgium               4
    ##  2 74%           Switzerland           4
    ##  3 72%           Belgium               4
    ##  4 70%           Switzerland           4
    ##  5 72%           Switzerland           4
    ##  6 68%           Switzerland           4
    ##  7 72%           Belgium               4
    ##  8 70%           Belgium               4
    ##  9 73%           Belgium               4
    ## 10 72%           Belgium               4
    ## # … with 52 more rows
…
